{
  "telemetry.enableTelemetry": false,
  "telemetry.enableCrashReporter": false,
  "editor.formatOnSave": true,
  "editor.renderWhitespace": "all",
  "editor.tabSize": 4,
  "files.insertFinalNewline": true,
  "files.trimFinalNewlines": true,
  "files.trimTrailingWhitespace": true,
  "workbench.colorTheme": "Monokai",
  "workbench.preferredDarkColorTheme": "Monokai",
  "[go]": {
    "editor.insertSpaces": false,
    "editor.tabSize": 4,
    "editor.detectIndentation": false,
    "editor.codeActionsOnSave": {
      "source.organizeImports": true
    }
  },
  "[json]": {
    "editor.tabSize": 2
  },
  "[markdown]": {
    "editor.wordWrap": "on",
    "editor.quickSuggestions": false
  },
  "[ruby]": {
    "editor.tabSize": 2
  },
  "[scss]": {
    "editor.formatOnSave": false
  },
  "[yaml]": {
    "editor.tabSize": 2
  },
  "files.associations": {
    "Vagrantfile-chef": "ruby"
  },
  "python.linting.flake8Enabled": true,
  "python.linting.flake8Args": [
    "--max-line-length=120"
  ],
  "go.buildOnSave": "off",
  "go.lintOnSave": "off",
  "extensions.autoCheckUpdates": false,
  "extensions.autoUpdate": false,
  "update.showReleaseNotes": false,
  "update.enableWindowsBackgroundUpdates": false,
  "update.mode": "none"
}
